<?xml version="1.0" encoding="utf-8"?>
<!-- Generator: Adobe Illustrator 19.2.0, SVG Export Plug-In . SVG Version: 6.00 Build 0)  -->
<svg version="1.1" xmlns="http://www.w3.org/2000/svg" xmlns:xlink="http://www.w3.org/1999/xlink" x="0px" y="0px"
	 viewBox="0 0 50 50" style="enable-background:new 0 0 50 50;" xml:space="preserve">
<g>
	<path style="fill: #01A1CE" d="M49,24.7c0,0-4.4-3.2-13.3-3c-3-3-6.8-5.2-13.4-5.2S9.4,18.3,6.3,21.3c-3.3,0-5,0-5,0v4.5L1,29.6l2.5,1.8H5
		c-0.3-0.7-0.4-1.4-0.4-2.1c0-3.3,2.6-5.9,5.9-5.9c3.3,0,5.9,2.6,5.9,5.9c0,0.8-0.1,1.5-0.4,2.1h18.3c-0.3-0.7-0.4-1.4-0.4-2.1
		c0-3.3,2.6-5.9,5.9-5.9c3.3,0,5.9,2.6,5.9,5.9c0,0.8-0.1,1.5-0.4,2.1h1.8L49,24.7z M21.5,22H8.3c4.1-4.5,13.2-4.7,13.2-4.7V22z
		 M22.6,22c0,0,0-2,0-4.7c8.6,0.2,10.5,4.7,10.5,4.7H22.6z"/>
	<path style="fill: #01A1CE" d="M10.5,25.2c-2.3,0-4.1,1.9-4.1,4.1c0,0.8,0.2,1.5,0.6,2.1c0.7,1.2,2,2,3.5,2s2.8-0.8,3.5-2c0.4-0.6,0.6-1.4,0.6-2.1
		C14.6,27,12.8,25.2,10.5,25.2z M10.5,32.1c-0.7,0-1.3-0.3-1.8-0.7c-0.6-0.5-1-1.3-1-2.1c0-1.6,1.3-2.8,2.8-2.8
		c1.6,0,2.8,1.3,2.8,2.8c0,0.9-0.4,1.6-1,2.1C11.8,31.9,11.2,32.1,10.5,32.1z"/>
	<path style="fill: #01A1CE" d="M39.8,25.2c-2.3,0-4.1,1.9-4.1,4.1c0,0.8,0.2,1.5,0.6,2.1c0.7,1.2,2,2,3.5,2s2.8-0.8,3.5-2c0.4-0.6,0.6-1.4,0.6-2.1
		C44,27,42.1,25.2,39.8,25.2z M39.8,32.1c-0.7,0-1.3-0.3-1.8-0.7c-0.6-0.5-1-1.3-1-2.1c0-1.6,1.3-2.8,2.8-2.8c1.6,0,2.8,1.3,2.8,2.8
		c0,0.9-0.4,1.6-1,2.1C41.1,31.9,40.5,32.1,39.8,32.1z"/>
</g>
</svg>
