<?xml version="1.0" encoding="utf-8"?>
<!-- Generator: Adobe Illustrator 19.2.0, SVG Export Plug-In . SVG Version: 6.00 Build 0)  -->
<svg version="1.1" xmlns="http://www.w3.org/2000/svg" xmlns:xlink="http://www.w3.org/1999/xlink" x="0px" y="0px"
	 viewBox="0 0 50 50" style="enable-background:new 0 0 50 50;" xml:space="preserve">
<g>
	<g>
		<path d="M22.9,40.9c-1.8,0-3.3,1.5-3.3,3.3c0,1.8,1.5,3.3,3.3,3.3c1.8,0,3.3-1.5,3.3-3.3
			C26.2,42.4,24.7,40.9,22.9,40.9z M22.9,45c-0.4,0-0.8-0.3-0.8-0.8c0-0.4,0.3-0.8,0.8-0.8s0.8,0.3,0.8,0.8
			C23.6,44.6,23.3,45,22.9,45z"/>
		<path d="M38.6,40.9c-1.8,0-3.3,1.5-3.3,3.3c0,1.8,1.5,3.3,3.3,3.3c1.8,0,3.3-1.5,3.3-3.3
			C41.9,42.4,40.4,40.9,38.6,40.9z M38.6,45c-0.4,0-0.8-0.3-0.8-0.8c0-0.4,0.3-0.8,0.8-0.8c0.4,0,0.8,0.3,0.8,0.8
			C39.3,44.6,39,45,38.6,45z"/>
		<path d="M43.8,37.2H17.7c-0.7,0-1.3,0.6-1.3,1.3c0,0.7,0.6,1.3,1.3,1.3h26.1c0.7,0,1.3-0.6,1.3-1.3
			C45,37.8,44.5,37.2,43.8,37.2z"/>
		<path d="M48.4,14.6c-0.5-0.7-2.1-1-2.1-1c-0.1,0-0.2,0-0.3,0l-31.9,0c-0.1,0-0.2,0-0.3,0l-0.2-0.1
			c-0.1,0-0.1-0.1-0.1-0.2L12,5.5c0-0.1-0.4-3-3.7-3H2.7H2.3C1.6,2.5,1,3,1,3.8S1.6,5,2.3,5h0h0.4h5.5C9.3,5,9.4,6,9.5,6l2.1,10.3
			c0,0.1,0,0.2,0,0.3c0,0,2.3,12.1,3.1,16.1c0,0.1,0.2,3.1,3.7,3.1h23.8c3.5,0,3.6-2.6,3.7-3.1c0.7-3.9,3.1-15.5,3.1-15.5
			c0-0.1,0-0.2,0-0.3C49,16.9,49,15.2,48.4,14.6z M15.6,22.6c-0.1,0-0.1-0.1-0.2-0.1l-1.2-6.1c0-0.1,0-0.1,0-0.2c0,0,0,0,0,0
			c0-0.1,0.1-0.1,0.1-0.1c0.1,0,0.2,0,0.3,0h4.2c0.1,0,0.1,0.1,0.2,0.1l1.3,6.2c0,0.1,0,0.1-0.1,0.1H15.6z M22.2,33.1h-3.8
			c-1,0-1.2-0.9-1.2-1l-0.1-0.6c0-0.1,0-0.2,0-0.3l-1.1-6c0-0.1,0-0.1,0.1-0.1h4.5c0.1,0,0.1,0.1,0.2,0.1l1.5,7.7
			C22.3,33.1,22.2,33.1,22.2,33.1z M29.4,33c0,0.1-0.1,0.1-0.1,0.1h-4.2c-0.1,0-0.1-0.1-0.2-0.1l-1.5-7.7c0-0.1,0-0.1,0.1-0.1h5.8
			c0.1,0,0.1,0.1,0.1,0.1L29.4,33L29.4,33z M29.4,22.5c0,0.1-0.1,0.1-0.1,0.1h-6.4c-0.1,0-0.1-0.1-0.2-0.1l-1.3-6.2
			c0-0.1,0-0.1,0.1-0.1h7.7c0.1,0,0.1,0.1,0.1,0.1L29.4,22.5L29.4,22.5z M36.5,33c0,0.1-0.1,0.1-0.2,0.1h-4.2
			c-0.1,0-0.1-0.1-0.1-0.1v-7.7c0-0.1,0.1-0.1,0.1-0.1H38c0.1,0,0.1,0.1,0.1,0.1L36.5,33z M38.5,22.6h-6.4c-0.1,0-0.1-0.1-0.1-0.1
			v-6.2c0-0.1,0.1-0.1,0.1-0.1h7.7c0.1,0,0.1,0.1,0.1,0.1l-1.3,6.2C38.6,22.6,38.5,22.6,38.5,22.6z M43.4,32.1c0,0.1-0.2,1-1.2,1h-3
			c-0.1,0-0.1-0.1-0.1-0.1l1.5-7.7c0-0.1,0.1-0.1,0.2-0.1h3.8c0.1,0,0.1,0.1,0.1,0.1C44.7,25.3,43.7,30.4,43.4,32.1z M46.5,16.4
			c0,0.1,0,0.2,0,0.3l-1.2,5.9c0,0.1-0.1,0.1-0.2,0.1h-3.8c-0.1,0-0.1-0.1-0.1-0.1l1.3-6.2c0-0.1,0.1-0.1,0.2-0.1h3.4
			c0.1,0,0.2,0,0.3,0c0,0,0.1,0,0.1,0.1C46.5,16.3,46.5,16.4,46.5,16.4z"/>
	</g>
</g>
</svg>
