<?xml version="1.0" encoding="utf-8"?>
<!-- Generator: Adobe Illustrator 19.2.0, SVG Export Plug-In . SVG Version: 6.00 Build 0)  -->
<svg version="1.1" xmlns="http://www.w3.org/2000/svg" xmlns:xlink="http://www.w3.org/1999/xlink" x="0px" y="0px"
	 viewBox="0 0 50 50" style="enable-background:new 0 0 50 50;" xml:space="preserve">
<path style="fill:#00247D;" d="M1,13v24h48V13H1z"/>
<polygon style="fill:#FFFFFF;" points="25,27.2 44.5,37 49,37 49,34.8 29.5,25 49,15.2 49,13 44.5,13 25,22.8 5.5,13 1,13 1,15.2 
	20.5,25 1,34.8 1,37 5.5,37 "/>
<polygon style="fill:#CF142B;" points="1,14.3 22.3,25 1,35.7 1,37 3.7,37 25,26.3 46.3,37 49,37 49,35.6 27.7,25 49,14.4 49,13 
	46.3,13 25,23.7 3.7,13 1,13 1,13 "/>
<polygon style="fill:#FFFFFF;" points="29,37 21,37 21,29 1,29 1,21 21,21 21,13 29,13 29,21 49,21 49,29 29,29 "/>
<polygon style="fill:#CF142B;" points="27.4,37 22.6,37 22.6,27.4 1,27.4 1,22.6 22.6,22.6 22.6,13 27.4,13 27.4,22.6 49,22.6 
	49,27.4 27.4,27.4 "/>
</svg>
