<?xml version="1.0" encoding="utf-8"?>
<!-- Generator: Adobe Illustrator 19.2.0, SVG Export Plug-In . SVG Version: 6.00 Build 0)  -->
<svg version="1.1" xmlns="http://www.w3.org/2000/svg" xmlns:xlink="http://www.w3.org/1999/xlink" x="0px" y="0px"
	 viewBox="0 0 50 50" style="enable-background:new 0 0 50 50;" xml:space="preserve">
<rect x="20.1" y="1.1" transform="matrix(0.5525 -0.8335 0.8335 0.5525 -10.7631 30.8758)" style="fill:#f36f21;" width="6.5" height="48.8"/>
<path style="fill:#5B5B5B;" d="M32.5,23c0.6,0,1-0.5,1.1-1.1l0.8-4c0.1-0.3,0-0.5-0.2-0.7C34,17,33.7,17,33.3,17H19.7l9.1,6H32.5z"
	/>
<path style="fill:#5B5B5B;" d="M22.5,10.8c2.3-1.5,4.8-2.3,7.7-2.3c0.1,0,0.4-0.1,1,0c0.6,0.1,0.9,0.1,1,0.1c0.1,0,0.4,0,0.9,0.1
	c0.5,0.1,0.8,0.1,0.8,0.1l0.6,0.1c0.2,0,0.3,0.1,0.4,0.1L35,9c0.3,0.1,0.6,0.1,0.8-0.1c0.3-0.1,0.4-0.4,0.5-0.7l1.5-5.4
	c0.1-0.3,0-0.6-0.1-0.8c-0.2-0.3-0.4-0.4-0.7-0.5c-2.1-0.5-4.3-0.8-6.6-0.8c-5.1,0-9.6,1.7-13.7,4.6c-2.3,1.7-4.2,3.7-5.7,6l6.9,4.6
	C19,13.5,20.5,12.1,22.5,10.8z"/>
<path style="fill:#5B5B5B;" d="M38.4,46.3l-1.2-5.4c0-0.1-0.1-0.3-0.2-0.4c-0.1-0.1-0.2-0.2-0.3-0.3c-0.1,0-0.2-0.1-0.3-0.1
	c-0.2-0.1-0.4-0.1-0.6,0l-0.2,0.1l-0.4,0.1c-0.2,0-0.4,0.1-0.6,0.2c-0.2,0.1-0.5,0.1-0.8,0.2c-0.3,0.1-0.7,0.1-1,0.2
	c-0.4,0-0.7,0.1-1.1,0.1c-0.4,0-0.8,0.1-1.2,0.1c-2.9,0-5.5-0.9-7.8-2.5c-2.3-1.6-4-3.5-5.1-6.5h6.7L4,18.6v3c0,0.3,0.1,0.7,0.3,0.9
	C4.5,22.7,4.7,23,5,23h2.3c-0.1,1-0.1,2,0,3H5c-0.3,0-0.5,0.2-0.7,0.4C4.1,26.7,4,27,4,27.3v3.9c0,0.3,0.1,0.4,0.3,0.6
	C4.5,32,4.7,32,5,32h3.2c1.4,5,4.1,9.2,8.1,12.1c4,3,8.6,4.5,13.9,4.5c0.4,0,0.9,0,1.3,0c0.4,0,0.9,0,1.2-0.1c0.4,0,0.8-0.1,1.1-0.1
	c0.4-0.1,0.7-0.1,1-0.2c0.3-0.1,0.6-0.1,0.9-0.2c0.3-0.1,0.5-0.1,0.7-0.2c0.2-0.1,0.4-0.1,0.5-0.2c0.1,0,0.3-0.1,0.4-0.1l0.2,0
	c0.3-0.1,0.4-0.3,0.6-0.5C38.4,46.9,38.5,46.6,38.4,46.3z"/>
</svg>
