<?xml version="1.0" encoding="utf-8"?>
<!-- Generator: Adobe Illustrator 19.2.0, SVG Export Plug-In . SVG Version: 6.00 Build 0)  -->
<svg version="1.1" xmlns="http://www.w3.org/2000/svg" xmlns:xlink="http://www.w3.org/1999/xlink" x="0px" y="0px"
	 viewBox="0 0 50 50" style="enable-background:new 0 0 50 50;" xml:space="preserve">
<path style="fill:#5b5b5b;" d="M25,2c12.7,0,23,10.3,23,23S37.7,48,25,48S2,37.7,2,25S12.3,2,25,2 M25,1C11.7,1,1,11.7,1,25
	s10.7,24,24,24s24-10.7,24-24S38.3,1,25,1L25,1z"/>
<path style="fill:#5b5b5b;" d="M25,10.9c7.8,0,14.1,6.3,14.1,14.1S32.8,39.1,25,39.1S10.9,32.8,10.9,25S17.2,10.9,25,10.9 M25,9.9
	C16.6,9.9,9.9,16.6,9.9,25c0,8.4,6.8,15.1,15.1,15.1c8.4,0,15.1-6.8,15.1-15.1C40.1,16.6,33.4,9.9,25,9.9L25,9.9z"/>
<path style="fill:#f36f21;" d="M25,10.9c7.8,0,14.1,6.3,14.1,14.1S32.8,39.1,25,39.1S10.9,32.8,10.9,25S17.2,10.9,25,10.9"/>
</svg>
