<?xml version="1.0" encoding="utf-8"?>
<!-- Generator: Adobe Illustrator 19.2.0, SVG Export Plug-In . SVG Version: 6.00 Build 0)  -->
<svg version="1.1" xmlns="http://www.w3.org/2000/svg" xmlns:xlink="http://www.w3.org/1999/xlink" x="0px" y="0px"
	 viewBox="0 0 50 50" style="enable-background:new 0 0 50 50;" xml:space="preserve">
<g>
	<path style="fill:#5D5D5D;" d="M40.3,43.1c-0.5,0-1.1-0.2-1.5-0.6c-0.8-0.8-0.8-2.2,0-3c3.9-3.9,6-9,6-14.5c0-5.5-2.1-10.6-6-14.5
		c-0.8-0.8-0.8-2.2,0-3c0.8-0.8,2.2-0.8,3,0C46.4,12.2,49,18.4,49,25s-2.6,12.8-7.2,17.5C41.4,42.9,40.8,43.1,40.3,43.1z M32.7,39.1
		c-0.5,0-1.1-0.2-1.5-0.6c-0.8-0.8-0.8-2.2,0-3c5.8-5.8,5.8-15.2,0-21c-0.8-0.8-0.8-2.2,0-3c0.8-0.8,2.2-0.8,3,0
		c3.6,3.6,5.6,8.4,5.6,13.5s-2,9.9-5.6,13.5C33.8,38.9,33.3,39.1,32.7,39.1z M25.2,35.1c-0.5,0-1.1-0.2-1.5-0.6
		c-0.8-0.8-0.8-2.2,0-3c3.6-3.6,3.6-9.4,0-13c-0.8-0.8-0.8-2.2,0-3s2.2-0.8,3,0c5.2,5.2,5.2,13.7,0,19
		C26.3,34.9,25.8,35.1,25.2,35.1z M18.7,5.9c1.1-1.1,2.1-0.7,2.1,0.9v36.5c0,1.6-0.9,2-2.1,0.9L8.1,33.5H1V16.5h7.1L18.7,5.9z"/>
</g>
</svg>
