<?xml version="1.0" encoding="utf-8"?>
<!-- Generator: Adobe Illustrator 19.2.0, SVG Export Plug-In . SVG Version: 6.00 Build 0)  -->
<svg version="1.1" xmlns="http://www.w3.org/2000/svg" xmlns:xlink="http://www.w3.org/1999/xlink" x="0px" y="0px"
	 viewBox="0 0 500 500" style="enable-background:new 0 0 500 500;" xml:space="preserve">
<path style="fill: #0080c0" d="M470.5,165H115.7h-4.3H30.2C18.4,165,9,174.7,9,186.5v126.9c0,11.9,9.4,21.5,21.2,21.5h81.1h4.3h354.8
	c11.9,0,21.5-9.7,21.5-21.5V186.5C492,174.7,482.4,165,470.5,165z M90.5,218.5c0,2.6-2.1,4.8-4.8,4.8c-2.6,0-4.8-2.1-4.8-4.8
	c0-2.6,2.1-4.8,4.8-4.8C88.4,213.7,90.5,215.8,90.5,218.5z M75.7,199c0.9-0.9,2.2-1.4,3.4-1.4c1.2,0,2.5,0.5,3.4,1.4
	c1.9,1.9,1.9,4.9,0,6.8c-0.9,0.9-2.2,1.4-3.4,1.4c-1.2,0-2.5-0.5-3.4-1.4C73.8,203.9,73.8,200.9,75.7,199z M75.7,231.1
	c0.9-0.9,2.2-1.4,3.4-1.4c1.2,0,2.5,0.5,3.4,1.4c1.9,1.9,1.9,4.9,0,6.8c-0.9,0.9-2.2,1.4-3.4,1.4c-1.2,0-2.5-0.5-3.4-1.4
	C73.8,236.1,73.8,233,75.7,231.1z M43.5,199c0.9-0.9,2.2-1.4,3.4-1.4c1.2,0,2.5,0.5,3.4,1.4c1.9,1.9,1.9,4.9,0,6.8
	c-0.9,0.9-2.2,1.4-3.4,1.4s-2.5-0.5-3.4-1.4C41.7,203.9,41.6,200.9,43.5,199z M50.3,237.9c-0.9,0.9-2.2,1.4-3.4,1.4
	s-2.5-0.5-3.4-1.4c-1.9-1.9-1.9-4.9,0-6.8c0.9-0.9,2.2-1.4,3.4-1.4c1.2,0,2.5,0.5,3.4,1.4C52.2,233,52.2,236,50.3,237.9z
	 M35.5,218.5c0-2.6,2.1-4.8,4.8-4.8c2.7,0,4.8,2.1,4.8,4.8c0,2.6-2.1,4.8-4.8,4.8C37.6,223.2,35.5,221.1,35.5,218.5z M65,302h-6.1
	L47,283.4V302h-5v-29h5.5L59,292.6V273h6V302z M63,246c-2.6,0-4.8-2.1-4.8-4.8c0-2.6,2.1-4.8,4.8-4.8c2.7,0,4.8,2.1,4.8,4.8
	C67.8,243.8,65.6,246,63,246z M63,200.5c-2.6,0-4.8-2.1-4.8-4.8c0-2.6,2.1-4.8,4.8-4.8c2.7,0,4.8,2.1,4.8,4.8
	C67.8,198.4,65.6,200.5,63,200.5z M91,302H71v-28h6v23h14V302z M482,313.5c0,6.3-5.2,11.5-11.5,11.5H121V175h349.5
	c6.3,0,11.5,5.2,11.5,11.5V313.5z"/>
</svg>
